\relax 
\catcode `"\active 
\catcode `-\active 
\select@language{czech}
\@writefile{toc}{\select@language{czech}}
\@writefile{lof}{\select@language{czech}}
\@writefile{lot}{\select@language{czech}}
\bibcite{ircRFC}{1}
\bibcite{syslogRFC}{2}
\@writefile{toc}{\contentsline {section}{\numberline {1}\IeC {\'U}vod}{1}}
